*** Life<ConwayCell> 12x145 ***

Generation = 0, Population = 11.
................................................................*............................................................*...................
.................................................................................................................................................
.................................................................................................................................................
...................*..........................................................*..................................................................
.................................................................................................................................................
...........*..........................................*..........................................................................................
.................................................................................................................................................
.....................................................................................*...................*.......................................
............................................................*....................................................................................
.................................................................................................................................................
....................................................*.................*..........................................................................
.................................................................................................................................................

*** Life<ConwayCell> 8x165 ***

Generation = 0, Population = 8.
.....................................................................................................................................................................
.................................*...................................................................................................................................
........................................................................................................................................*............................
.....................................................................................................................................................................
.....................................................................................................................................................................
.....................................................................................................................................................................
................................*...............................................................................................................................*....
..............*......................................*.................*..............................*..............................................................

*** Life<ConwayCell> 6x127 ***

Generation = 0, Population = 8.
..........*..........................*.........................................................................................
.........*.....................................................................................................................
.....................................*.........................................................................................
...............................................................................................................................
.................................................*........................*...................................*................
..............................................................................................*................................

*** Life<ConwayCell> 9x66 ***

Generation = 0, Population = 5.
..................................................................
..................................................................
.........................................*........................
..................................................................
.....................*..*.........................................
..................................................................
..................................................................
..................................................................
........*..........*..............................................

*** Life<ConwayCell> 9x87 ***

Generation = 0, Population = 13.
.......................................................................................
...........................*.............................*.......*.....................
..............................................................................*........
...................................................................*...................
.......*...............................................................................
.......................................................................................
...............................*................................*......................
.................................*........................*................*...........
...................................................................*....*..............

*** Life<ConwayCell> 12x111 ***

Generation = 0, Population = 9.
.......................*....................................................*..................................
...............................................................................................................
.....................................................................*.........................................
...............................................................................................................
..............................................................*................................................
.........................................*.....................................................................
.............................................................................*.................................
...............................................................................................................
...............................................................................................................
..................................................................*............................................
...............................................................................................................
............*................*.................................................................................

Generation = 22, Population = 0.
...............................................................................................................
...............................................................................................................
...............................................................................................................
...............................................................................................................
...............................................................................................................
...............................................................................................................
...............................................................................................................
...............................................................................................................
...............................................................................................................
...............................................................................................................
...............................................................................................................
...............................................................................................................

Generation = 44, Population = 0.
...............................................................................................................
...............................................................................................................
...............................................................................................................
...............................................................................................................
...............................................................................................................
...............................................................................................................
...............................................................................................................
...............................................................................................................
...............................................................................................................
...............................................................................................................
...............................................................................................................
...............................................................................................................

Generation = 66, Population = 0.
...............................................................................................................
...............................................................................................................
...............................................................................................................
...............................................................................................................
...............................................................................................................
...............................................................................................................
...............................................................................................................
...............................................................................................................
...............................................................................................................
...............................................................................................................
...............................................................................................................
...............................................................................................................

*** Life<ConwayCell> 8x159 ***

Generation = 0, Population = 8.
...............................................................................................................................................................
..............................................*......................................................................*.........................................
............................................................................*..................................................................................
.........................................................................................................................*.....................................
.........................................................................................................................*.....................................
.........................................................................................................................................*.....................
..................*............................................................................................................................................
..........................................................................................................................................................*....

*** Life<ConwayCell> 10x79 ***

Generation = 0, Population = 5.
......................................................*........................
...................................*...........................................
...............................................................................
...............................................................................
...............................................................................
...............................................................................
...............................................................................
...............................................................................
.........................*.....................*...............................
........................................*......................................

*** Life<ConwayCell> 11x186 ***

Generation = 0, Population = 14.
...................................................................................................................................................................*......................
...............................................................................*..........................................................................................................
...................................................................*.....*................................................................................................................
..........................................................................................................................................................................................
..........*..........................................................................................*...........................*........................................................
...................*...................................................................*..................................................................................................
..........................................................................................................................................................................*...............
...............*..........................................................................................................................................................................
...........*.........................................................................................................................................*...........*........................
..........................................................................................................................................................................................
..........................................................................................................................................................................................

*** Life<ConwayCell> 16x55 ***

Generation = 0, Population = 10.
.....................*.................................
.......................................................
.......................................................
.................................*.....................
....................*..................................
.........*.............................................
.......................................................
.........................................*.............
.......................................................
.......................................................
..............*.......*................................
.*.........*...........................................
.............................*.........................
.......................................................
.......................................................
.......................................................

*** Life<ConwayCell> 7x27 ***

Generation = 0, Population = 12.
......*....................
...........................
......*........*..........*
...*.....*........*.*......
..........................*
*...*..................*...
...........................

*** Life<ConwayCell> 7x23 ***

Generation = 0, Population = 19.
............*..........
.........*....*......*.
....*............*..**.
......*..........*...*.
*......*....*.*...*...*
..............*........
.................*.....

Generation = 66, Population = 0.
.......................
.......................
.......................
.......................
.......................
.......................
.......................

*** Life<ConwayCell> 11x124 ***

Generation = 0, Population = 20.
.....................................*......................................................................................
...................................................*............................*........................................*..
.........................*.................................................*................................................
........................*......................*...............*............................................................
.....................................*..................................................*.*.................................
..............................................................*.............................................................
.........................................*.............................*...................................*................
............................................................................................................................
.................................................................................................................*..........
...........*...................................................................................*............................
........................................................................................................................*...

*** Life<ConwayCell> 7x21 ***

Generation = 0, Population = 14.
..*........*.*....*..
.................*...
.............*.......
..*..................
...........*.........
...*....*.........*..
..........*.*.....*..

*** Life<ConwayCell> 10x31 ***

Generation = 0, Population = 7.
...............................
.......................*.......
......*........................
...............................
...............................
................*..............
...............................
...............................
.*.............................
.*...*.........*...............

*** Life<ConwayCell> 10x173 ***

Generation = 0, Population = 10.
.............................................*.....*.......................................*...............................................................................*.
.......................................................................................*.....................................................................................
............*........*.......................................................................................................................................................
.............................................................................................................................................................................
.............................................................................................................................................................................
.................*...........................................................................................................................................................
..................................*..........................................................................................................................................
.............................................................................................................................................................................
.........................................................................................................*...................................................................
.............................................................................................................................................................................

Generation = 52, Population = 0.
.............................................................................................................................................................................
.............................................................................................................................................................................
.............................................................................................................................................................................
.............................................................................................................................................................................
.............................................................................................................................................................................
.............................................................................................................................................................................
.............................................................................................................................................................................
.............................................................................................................................................................................
.............................................................................................................................................................................
.............................................................................................................................................................................

*** Life<ConwayCell> 20x93 ***

Generation = 0, Population = 9.
.......*.....................................................................................
.............................................................................................
.....................*............................*..........................................
.............................................................................................
.............................................................................................
.............................................................................................
................................................*............................................
...............*.............................................................................
.............................................................................................
.............................................................................................
...................................................................................*.........
.............................................................................................
.............................................................................................
.............................................................................................
......................................................................................*......
.............................................................................................
.............................................................................................
.............................................................................................
..................*............................................*.............................
.............................................................................................

*** Life<ConwayCell> 17x199 ***

Generation = 0, Population = 14.
.......................................................................................................................................................................................................
.....................................................*.................................................................................................................................................
.......................................................................................................................................................................................................
.............................................................*.................................................................................................................*............*..........
.......*..............................................................................................................................*................................................................
..........................................................................................................*............................................................................................
.......................................................................................................................................................................................................
.................................................................................................*.....................................................................................................
.......................................................................................................................................................................................................
.................*.......................................................................................*.............................................................................................
........*..............................................................................................................................................................................................
.......................................................................................................................................................................................................
.......................................................................................................................................................................................................
...........................................................................................................................................................*...........................................
.......................................................................................................................................................................................................
..*..................................................................................................................................................*.................................................
.......................................................................................................................................................................................................

*** Life<ConwayCell> 6x153 ***

Generation = 0, Population = 6.
.........................................................................................................................................................
...........................................................................*.........................................................................*...
.............*...........................................................................................................................................
..................................................*......................................................................................................
........................................................................*................................................................................
....*....................................................................................................................................................

*** Life<ConwayCell> 5x22 ***

Generation = 0, Population = 5.
...*...........*......
......................
........*...*.........
...*..................
......................

Generation = 67, Population = 0.
......................
......................
......................
......................
......................

*** Life<ConwayCell> 12x116 ***

Generation = 0, Population = 15.
...............................................................................*......*................*............
....................................................................................................................
....................................................................................................................
....................................................................................................................
..........................................*.........................................................................
................................................................................................................*...
...............*....................................................................................................
....................................................................................................................
........................................................................................................*...........
........*............................................................................*..............................
........................*..................................*........................................................
...*..........................*..............*.........................................*............................

*** Life<ConwayCell> 13x157 ***

Generation = 0, Population = 9.
.............................................................................................................................................................
.........................................................................................................................................................*...
........................................................................................................................*....................................
..........................*..................................................................................................................................
.............................................................................................................................................................
.............................................................................................................................................................
.............................................................................................................................................................
.......................................................................................................*.....................................................
...................................................*.........................................................................................................
..............................................................................................................................*..............................
.............................................................................................................*...............................................
...........................*.................................................................................................................................
...................*.........................................................................................................................................

Generation = 50, Population = 0.
.............................................................................................................................................................
.............................................................................................................................................................
.............................................................................................................................................................
.............................................................................................................................................................
.............................................................................................................................................................
.............................................................................................................................................................
.............................................................................................................................................................
.............................................................................................................................................................
.............................................................................................................................................................
.............................................................................................................................................................
.............................................................................................................................................................
.............................................................................................................................................................
.............................................................................................................................................................

*** Life<ConwayCell> 13x49 ***

Generation = 0, Population = 7.
............*..........*.........................
.................................................
.................................................
.................................................
.................*...............................
.................................................
....................................*....*.......
.................................................
.................................................
.................................................
.....*.............*.............................
.................................................
.................................................
